[2020-08-22T06:13:46.730729+00:00] security.INFO: Populated the TokenStorage with an anonymous Token. [] []
[2020-08-22T06:13:49.679100+00:00] security.INFO: Populated the TokenStorage with an anonymous Token. [] []
[2020-08-22T06:13:50.581321+00:00] security.INFO: Populated the TokenStorage with an anonymous Token. [] []
[2020-08-22T06:13:56.693564+00:00] security.INFO: Populated the TokenStorage with an anonymous Token. [] []
[2020-08-22T06:13:57.411608+00:00] security.INFO: Populated the TokenStorage with an anonymous Token. [] []
[2020-08-22T06:14:04.543022+00:00] security.INFO: User has been authenticated successfully. {"username":"admin@admin.com"} []
[2020-08-22T06:14:11.202726+00:00] security.INFO: Guard authentication successful! {"token":{"Lexik\\Bundle\\JWTAuthenticationBundle\\Security\\Authentication\\Token\\JWTUserToken":"JWTUserToken(user=\"admin@admin.com\", authenticated=true, roles=\"ROLE_USER, ROLE_ADMIN\")"},"authenticator":"Lexik\\Bundle\\JWTAuthenticationBundle\\Security\\Guard\\JWTTokenAuthenticator"} []
[2020-08-22T06:14:11.311854+00:00] security.INFO: Guard authentication successful! {"token":{"Lexik\\Bundle\\JWTAuthenticationBundle\\Security\\Authentication\\Token\\JWTUserToken":"JWTUserToken(user=\"admin@admin.com\", authenticated=true, roles=\"ROLE_USER, ROLE_ADMIN\")"},"authenticator":"Lexik\\Bundle\\JWTAuthenticationBundle\\Security\\Guard\\JWTTokenAuthenticator"} []
[2020-08-22T06:14:12.732478+00:00] security.INFO: Guard authentication successful! {"token":{"Lexik\\Bundle\\JWTAuthenticationBundle\\Security\\Authentication\\Token\\JWTUserToken":"JWTUserToken(user=\"admin@admin.com\", authenticated=true, roles=\"ROLE_USER, ROLE_ADMIN\")"},"authenticator":"Lexik\\Bundle\\JWTAuthenticationBundle\\Security\\Guard\\JWTTokenAuthenticator"} []
[2020-08-22T06:14:14.287024+00:00] security.INFO: Guard authentication successful! {"token":{"Lexik\\Bundle\\JWTAuthenticationBundle\\Security\\Authentication\\Token\\JWTUserToken":"JWTUserToken(user=\"admin@admin.com\", authenticated=true, roles=\"ROLE_USER, ROLE_ADMIN\")"},"authenticator":"Lexik\\Bundle\\JWTAuthenticationBundle\\Security\\Guard\\JWTTokenAuthenticator"} []
